<svg xmlns="http://www.w3.org/2000/svg" xmlns:xlink="http://www.w3.org/1999/xlink" version="1.1" width="799.92pt" height="408.96pt" viewBox="0 0 799.92 408.96">
<defs>
<clipPath id="clip_0">
<path transform="matrix(.24,0,0,.24,0,0)" d="M0 0H3333.3333V1701.17H0Z" fill-rule="evenodd"/>
</clipPath>
<clipPath id="clip_1">
<path transform="matrix(.24,0,0,.24,0,0)" d="M0 0H3333.3333V1698.1698H0Z" fill-rule="evenodd"/>
</clipPath>
</defs>
<g clip-path="url(#clip_0)">
<path transform="matrix(.720072,0,0,.720072,0,0)" d="M0 0H1111V567H0Z" fill="#ffffff"/>
</g>
<g clip-path="url(#clip_1)">
<path transform="matrix(.720072,0,0,.720072,.360036,.360036)" d="M25.5 14.5C25.5 14.992456 25.451964 15.480182 25.355889 15.963176 25.259814 16.44617 25.11755 16.915154 24.929095 17.370125 24.740639 17.825095 24.509615 18.257313 24.23602 18.666777 23.962426 19.07624 23.651518 19.455082 23.303299 19.8033 22.955079 20.15152 22.576235 20.462426 22.16677 20.736021 21.757309 21.009615 21.325093 21.240639 20.870121 21.429095 20.415152 21.61755 19.94617 21.759816 19.463175 21.855887 18.98018 21.951962 18.492457 21.999999 18 22 17.507542 21.999999 17.019816 21.951962 16.53682 21.855887 16.053826 21.759816 15.584843 21.61755 15.129871 21.429095 14.674901 21.240639 14.242684 21.009615 13.8332209 20.736021 13.4237589 20.462426 13.044918 20.15152 12.696698 19.8033 12.348478 19.455082 12.037571 19.07624 11.763976 18.666777 11.490381 18.257313 11.2593569 17.825095 11.070902 17.370125 10.882447 16.915154 10.740183 16.44617 10.644109 15.963176 10.548036 15.480182 10.499999 14.992456 10.5 14.5 10.499999 14.007543 10.548036 13.519816 10.644109 13.036821 10.740183 12.553826 10.882447 12.084844 11.070902 11.629872 11.2593569 11.174901 11.490382 10.742683 11.763977 10.3332209 12.037572 9.923758 12.348478 9.544917 12.696698 9.196698 13.044918 8.848478 13.4237589 8.537572 13.833221 8.263977 14.242684 7.9903829 14.674902 7.759358 15.129872 7.570903 15.584843 7.3824479 16.053826 7.2401835 16.53682 7.14411 17.019816 7.0480368 17.507542 7 18 7 18.492457 7 18.98018 7.048037 19.463175 7.1441109 19.94617 7.2401835 20.415152 7.3824479 20.870121 7.570903 21.325093 7.759358 21.757309 7.9903829 22.16677 8.263977 22.576235 8.537572 22.955079 8.848478 23.303299 9.196698 23.651518 9.544917 23.962426 9.923758 24.23602 10.3332209 24.509615 10.742683 24.740639 11.174901 24.929095 11.629872 25.11755 12.084844 25.259814 12.553826 25.355889 13.036821 25.451964 13.519816 25.5 14.007543 25.5 14.5Z" fill="#ffffff"/>
<path transform="matrix(.720072,0,0,.720072,.360036,.360036)" stroke-width="1" stroke-linecap="butt" stroke-miterlimit="4" stroke-linejoin="miter" fill="none" stroke="#000000" d="M25.5 14.5C25.5 14.992456 25.451964 15.480182 25.355889 15.963176 25.259814 16.44617 25.11755 16.915154 24.929095 17.370125 24.740639 17.825095 24.509615 18.257313 24.23602 18.666777 23.962426 19.07624 23.651518 19.455082 23.303299 19.8033 22.955079 20.15152 22.576235 20.462426 22.16677 20.736021 21.757309 21.009615 21.325093 21.240639 20.870121 21.429095 20.415152 21.61755 19.94617 21.759816 19.463175 21.855887 18.98018 21.951962 18.492457 21.999999 18 22 17.507542 21.999999 17.019816 21.951962 16.53682 21.855887 16.053826 21.759816 15.584843 21.61755 15.129871 21.429095 14.674901 21.240639 14.242684 21.009615 13.8332209 20.736021 13.4237589 20.462426 13.044918 20.15152 12.696698 19.8033 12.348478 19.455082 12.037571 19.07624 11.763976 18.666777 11.490381 18.257313 11.2593569 17.825095 11.070902 17.370125 10.882447 16.915154 10.740183 16.44617 10.644109 15.963176 10.548036 15.480182 10.499999 14.992456 10.5 14.5 10.499999 14.007543 10.548036 13.519816 10.644109 13.036821 10.740183 12.553826 10.882447 12.084844 11.070902 11.629872 11.2593569 11.174901 11.490382 10.742683 11.763977 10.3332209 12.037572 9.923758 12.348478 9.544917 12.696698 9.196698 13.044918 8.848478 13.4237589 8.537572 13.833221 8.263977 14.242684 7.9903829 14.674902 7.759358 15.129872 7.570903 15.584843 7.3824479 16.053826 7.2401835 16.53682 7.14411 17.019816 7.0480368 17.507542 7 18 7 18.492457 7 18.98018 7.048037 19.463175 7.1441109 19.94617 7.2401835 20.415152 7.3824479 20.870121 7.570903 21.325093 7.759358 21.757309 7.9903829 22.16677 8.263977 22.576235 8.537572 22.955079 8.848478 23.303299 9.196698 23.651518 9.544917 23.962426 9.923758 24.23602 10.3332209 24.509615 10.742683 24.740639 11.174901 24.929095 11.629872 25.11755 12.084844 25.259814 12.553826 25.355889 13.036821 25.451964 13.519816 25.5 14.007543 25.5 14.5Z"/>
<path transform="matrix(.720072,0,0,.720072,.360036,.360036)" stroke-width="1" stroke-linecap="butt" stroke-miterlimit="10" stroke-linejoin="miter" fill="none" stroke="#000000" d="M18 22V47M18 27H3M18 27H33M18 47 3 67M18 47 33 67"/>
<text xml:space="preserve" transform="matrix(.720072 0 0 .720072 0 0)" font-size="16" font-family="ArialMT"><tspan y="89" x=".71875 5.1667506 14.062752 19.39075 28.28675">Igra&#x010d;</tspan></text>
<path transform="matrix(.720072,0,0,.720072,.360036,.360036)" d="M13 116H23V557H13Z" fill="#ffffff"/>
<path transform="matrix(.720072,0,0,.720072,.360036,.360036)" stroke-width="1" stroke-linecap="butt" stroke-miterlimit="4" stroke-linejoin="miter" fill="none" stroke="#000000" d="M13 116H23V557H13Z"/>
<path transform="matrix(.720072,0,0,.720072,.360036,.360036)" stroke-width="1" stroke-linecap="butt" stroke-miterlimit="10" stroke-linejoin="miter" fill="none" stroke="#000000" d="M23 121H200.88"/>
<path transform="matrix(.720072,0,0,.720072,.360036,.360036)" d="M209.88 121 200.88 125.5V116.5L209.88 121Z"/>
<path transform="matrix(.720072,0,0,.720072,.360036,.360036)" stroke-width="1" stroke-linecap="butt" stroke-miterlimit="10" stroke-linejoin="miter" fill="none" stroke="#000000" d="M209.88 121 200.88 125.5V116.5L209.88 121Z"/>
<path transform="matrix(.720072,0,0,.720072,0,0)" d="M79 105H156V119H79Z" fill="#ffffff"/>
<text xml:space="preserve" transform="matrix(.720072 0 0 .720072 0 0)" font-size="12" font-family="ArialMT"><tspan y="116" x="79.15625 85.82825 89.164249 92.500247 101.164249 107.83624 113.83624 117.17224 123.84424 129.84424 132.50824 135.84424 138.50824 145.18024 149.17624">1. Nastavi igru</tspan></text>
<path transform="matrix(.720072,0,0,.720072,.360036,.360036)" d="M166 1H266V41H166Z" fill="#ffffff"/>
<path transform="matrix(.720072,0,0,.720072,.360036,.360036)" stroke-width="1" stroke-linecap="butt" stroke-miterlimit="4" stroke-linejoin="miter" fill="none" stroke="#000000" d="M166 1H266V41H166Z"/>
<path transform="matrix(.720072,0,0,.720072,.360036,.360036)" d="M216.5 41V44H215.5V41M216.5 47V50H215.5V47M216.5 53V56H215.5V53M216.5 59V62H215.5V59M216.5 65V68H215.5V65M216.5 71V74H215.5V71M216.5 77V80H215.5V77M216.5 83V86H215.5V83M216.5 89V92H215.5V89M216.5 95V98H215.5V95M216.5 101V104H215.5V101M216.5 107V110H215.5V107M216.5 113V116H215.5V113M216.5 119V122H215.5V119M216.5 125V128H215.5V125M216.5 131V134H215.5V131M216.5 137V140H215.5V137M216.5 143V146H215.5V143M216.5 149V152H215.5V149M216.5 155V158H215.5V155M216.5 161V164H215.5V161M216.5 167V170H215.5V167M216.5 173V176H215.5V173M216.5 179V182H215.5V179M216.5 185V188H215.5V185M216.5 191V194H215.5V191M216.5 197V200H215.5V197M216.5 203V206H215.5V203M216.5 209V212H215.5V209M216.5 215V218H215.5V215M216.5 221V224H215.5V221M216.5 227V230H215.5V227M216.5 233V236H215.5V233M216.5 239V242H215.5V239M216.5 245V248H215.5V245M216.5 251V254H215.5V251M216.5 257V260H215.5V257M216.5 263V266H215.5V263M216.5 269V272H215.5V269M216.5 275V278H215.5V275M216.5 281V284H215.5V281M216.5 287V290H215.5V287M216.5 293V296H215.5V293M216.5 299V302H215.5V299M216.5 305V308H215.5V305M216.5 311V314H215.5V311M216.5 317V320H215.5V317M216.5 323V326H215.5V323M216.5 329V332H215.5V329M216.5 335V338H215.5V335M216.5 341V344H215.5V341M216.5 347V350H215.5V347M216.5 353V356H215.5V353M216.5 359V362H215.5V359M216.5 365V368H215.5V365M216.5 371V374H215.5V371M216.5 377V380H215.5V377M216.5 383V386H215.5V383M216.5 389V392H215.5V389M216.5 395V398H215.5V395M216.5 401V404H215.5V401M216.5 407V410H215.5V407M216.5 413V416H215.5V413M216.5 419V422H215.5V419M216.5 425V428H215.5V425M216.5 431V434H215.5V431M216.5 437V440H215.5V437M216.5 443V446H215.5V443M216.5 449V452H215.5V449M216.5 455V458H215.5V455M216.5 461V464H215.5V461M216.5 467V470H215.5V467M216.5 473V476H215.5V473M216.5 479V482H215.5V479M216.5 485V488H215.5V485M216.5 491V494H215.5V491M216.5 497V500H215.5V497M216.5 503V506H215.5V503M216.5 509V512H215.5V509M216.5 515V518H215.5V515M216.5 521V524H215.5V521M216.5 527V530H215.5V527M216.5 533V536H215.5V533M216.5 539V542H215.5V539M216.5 545V548H215.5V545M216.5 551V554H215.5V551M216.5 557V560H215.5V557"/>
<text xml:space="preserve" transform="matrix(.720072 0 0 .720072 0 0)" font-size="16" font-family="ArialMT"><tspan y="27" x="173.75 186.198 189.75 198.646 206.646 215.54199 219.094 223.54199 236.87 245.76599 254.66199">Glavni meni</tspan></text>
<path transform="matrix(.720072,0,0,.720072,.360036,.360036)" d="M211 116H221V344H211Z" fill="#ffffff"/>
<path transform="matrix(.720072,0,0,.720072,.360036,.360036)" stroke-width="1" stroke-linecap="butt" stroke-miterlimit="4" stroke-linejoin="miter" fill="none" stroke="#000000" d="M211 116H221V344H211Z"/>
<path transform="matrix(.720072,0,0,.720072,.360036,.360036)" d="M442 1H542V41H442Z" fill="#ffffff"/>
<path transform="matrix(.720072,0,0,.720072,.360036,.360036)" stroke-width="1" stroke-linecap="butt" stroke-miterlimit="4" stroke-linejoin="miter" fill="none" stroke="#000000" d="M442 1H542V41H442Z"/>
<path transform="matrix(.720072,0,0,.720072,.360036,.360036)" d="M492.5 41V44H491.5V41M492.5 47V50H491.5V47M492.5 53V56H491.5V53M492.5 59V62H491.5V59M492.5 65V68H491.5V65M492.5 71V74H491.5V71M492.5 77V80H491.5V77M492.5 83V86H491.5V83M492.5 89V92H491.5V89M492.5 95V98H491.5V95M492.5 101V104H491.5V101M492.5 107V110H491.5V107M492.5 113V116H491.5V113M492.5 119V122H491.5V119M492.5 125V128H491.5V125M492.5 131V134H491.5V131M492.5 137V140H491.5V137M492.5 143V146H491.5V143M492.5 149V152H491.5V149M492.5 155V158H491.5V155M492.5 161V164H491.5V161M492.5 167V170H491.5V167M492.5 173V176H491.5V173M492.5 179V182H491.5V179M492.5 185V188H491.5V185M492.5 191V194H491.5V191M492.5 197V200H491.5V197M492.5 203V206H491.5V203M492.5 209V212H491.5V209M492.5 215V218H491.5V215M492.5 221V224H491.5V221M492.5 227V230H491.5V227M492.5 233V236H491.5V233M492.5 239V242H491.5V239M492.5 245V248H491.5V245M492.5 251V254H491.5V251M492.5 257V260H491.5V257M492.5 263V266H491.5V263M492.5 269V272H491.5V269M492.5 275V278H491.5V275M492.5 281V284H491.5V281M492.5 287V290H491.5V287M492.5 293V296H491.5V293M492.5 299V302H491.5V299M492.5 305V308H491.5V305M492.5 311V314H491.5V311M492.5 317V320H491.5V317M492.5 323V326H491.5V323M492.5 329V332H491.5V329M492.5 335V338H491.5V335M492.5 341V344H491.5V341M492.5 347V350H491.5V347M492.5 353V356H491.5V353M492.5 359V362H491.5V359M492.5 365V368H491.5V365M492.5 371V374H491.5V371M492.5 377V380H491.5V377M492.5 383V386H491.5V383M492.5 389V392H491.5V389M492.5 395V398H491.5V395M492.5 401V404H491.5V401M492.5 407V410H491.5V407M492.5 413V416H491.5V413M492.5 419V422H491.5V419M492.5 425V428H491.5V425M492.5 431V434H491.5V431M492.5 437V440H491.5V437M492.5 443V446H491.5V443M492.5 449V452H491.5V449M492.5 455V458H491.5V455M492.5 461V464H491.5V461M492.5 467V470H491.5V467M492.5 473V476H491.5V473M492.5 479V482H491.5V479M492.5 485V488H491.5V485M492.5 491V494H491.5V491M492.5 497V500H491.5V497M492.5 503V506H491.5V503M492.5 509V512H491.5V509M492.5 515V518H491.5V515M492.5 521V524H491.5V521M492.5 527V530H491.5V527M492.5 533V536H491.5V533M492.5 539V542H491.5V539M492.5 545V548H491.5V545M492.5 551V554H491.5V551M492.5 557V559H491.5V557"/>
<text xml:space="preserve" transform="matrix(.720072 0 0 .720072 0 0)" font-size="16" font-family="ArialMT"><tspan y="27" x="458.20314 468.87513 477.77113 481.32313 484.87513 492.87513 501.77113 509.77113 513.3231 516.8751">Aplikacija</tspan></text>
<path transform="matrix(.720072,0,0,.720072,.360036,.360036)" d="M487 143H497V311H487Z" fill="#ffffff"/>
<path transform="matrix(.720072,0,0,.720072,.360036,.360036)" stroke-width="1" stroke-linecap="butt" stroke-miterlimit="4" stroke-linejoin="miter" fill="none" stroke="#000000" d="M487 143H497V311H487Z"/>
<path transform="matrix(.720072,0,0,.720072,.360036,.360036)" d="M487 390H497V522H487Z" fill="#ffffff"/>
<path transform="matrix(.720072,0,0,.720072,.360036,.360036)" stroke-width="1" stroke-linecap="butt" stroke-miterlimit="4" stroke-linejoin="miter" fill="none" stroke="#000000" d="M487 390H497V522H487Z"/>
<path transform="matrix(.720072,0,0,.720072,.360036,.360036)" d="M487 306.5H484V305.5H487M481 306.5H478V305.5H481M475 306.5H472V305.5H475M469 306.5H466V305.5H469M463 306.5H460V305.5H463M457 306.5H454V305.5H457M451 306.5H448V305.5H451M445 306.5H442V305.5H445M439 306.5H436V305.5H439M433 306.5H430V305.5H433M427 306.5H424V305.5H427M421 306.5H418V305.5H421M415 306.5H412V305.5H415M409 306.5H406V305.5H409M403 306.5H400V305.5H403M397 306.5H394V305.5H397M391 306.5H388V305.5H391M385 306.5H382V305.5H385M379 306.5H376V305.5H379M373 306.5H370V305.5H373M367 306.5H364V305.5H367M361 306.5H358V305.5H361M355 306.5H352V305.5H355M349 306.5H346V305.5H349M343 306.5H340V305.5H343M337 306.5H334V305.5H337M331 306.5H328V305.5H331M325 306.5H322V305.5H325M319 306.5H316V305.5H319M313 306.5H310V305.5H313M307 306.5H304V305.5H307M301 306.5H298V305.5H301M295 306.5H292V305.5H295M289 306.5H286V305.5H289M283 306.5H280V305.5H283M277 306.5H274V305.5H277M271 306.5H268V305.5H271M265 306.5H262V305.5H265M259 306.5H256V305.5H259M253 306.5H250V305.5H253M247 306.5H244V305.5H247M241 306.5H238V305.5H241M235 306.5H232V305.5H235M229 306.5H226V305.5H229"/>
<path transform="matrix(.720072,0,0,.720072,.360036,.360036)" stroke-width="1" stroke-linecap="butt" stroke-miterlimit="10" stroke-linejoin="miter" fill="none" stroke="#000000" d="M231.12 301.5 222.12 306 231.12 310.5"/>
<path transform="matrix(.720072,0,0,.720072,0,0)" d="M270 290H439V304H270Z" fill="#ffffff"/>
<text xml:space="preserve" transform="matrix(.720072 0 0 .720072 0 0)" font-size="12" font-family="ArialMT"><tspan y="301" x="269.67189 276.34388 279.67988 283.01588 290.57228 294.56828 301.24028 307.24028 313.91227 320.58427 327.25627 330.59226 333.25627 335.92027 341.92027 345.25627 351.92826 355.26426 361.26426 367.93626 373.93626 380.60826 386.60826 393.28025 399.95225 402.61625 409.28825 412.62425 415.28825 421.96025 428.63224 432.62825">3. Vra&#x0107;ena lista sa&#x010d;uvanih igara</tspan></text>
<path transform="matrix(.720072,0,0,.720072,.360036,.360036)" d="M211 339.5H208V338.5H211M205 339.5H202V338.5H205M199 339.5H196V338.5H199M193 339.5H190V338.5H193M187 339.5H184V338.5H187M181 339.5H178V338.5H181M175 339.5H172V338.5H175M169 339.5H166V338.5H169M163 339.5H160V338.5H163M157 339.5H154V338.5H157M151 339.5H148V338.5H151M145 339.5H142V338.5H145M139 339.5H136V338.5H139M133 339.5H130V338.5H133M127 339.5H124V338.5H127M121 339.5H118V338.5H121M115 339.5H112V338.5H115M109 339.5H106V338.5H109M103 339.5H100V338.5H103M97 339.5H94V338.5H97M91 339.5H88V338.5H91M85 339.5H82V338.5H85M79 339.5H76V338.5H79M73 339.5H70V338.5H73M67 339.5H64V338.5H67M61 339.5H58V338.5H61M55 339.5H52V338.5H55M49 339.5H46V338.5H49M43 339.5H40V338.5H43M37 339.5H34V338.5H37M31 339.5H28V338.5H31"/>
<path transform="matrix(.720072,0,0,.720072,.360036,.360036)" stroke-width="1" stroke-linecap="butt" stroke-miterlimit="10" stroke-linejoin="miter" fill="none" stroke="#000000" d="M33.12 334.5 24.12 339 33.12 343.5"/>
<path transform="matrix(.720072,0,0,.720072,0,0)" d="M48 323H187V337H48Z" fill="#ffffff"/>
<text xml:space="preserve" transform="matrix(.720072 0 0 .720072 0 0)" font-size="12" font-family="ArialMT"><tspan y="334" x="47.796876 54.468877 57.80488 61.140878 69.144878 73.14088 79.81288 85.81288 92.48488 96.48088 99.81688 105.81688 112.48888 115.824878 122.49687 129.16887 135.16887 138.50487 145.17687 151.17687 157.84886 163.84886 167.18486 169.84886 176.52086 180.51686">4. Prozor za nastavak igre</tspan></text>
<path transform="matrix(.720072,0,0,.720072,.360036,.360036)" stroke-width="1" stroke-linecap="butt" stroke-miterlimit="10" stroke-linejoin="miter" fill="none" stroke="#000000" d="M24 396H476.88"/>
<path transform="matrix(.720072,0,0,.720072,.360036,.360036)" d="M485.88 396 476.88 400.5V391.5L485.88 396Z"/>
<path transform="matrix(.720072,0,0,.720072,.360036,.360036)" stroke-width="1" stroke-linecap="butt" stroke-miterlimit="10" stroke-linejoin="miter" fill="none" stroke="#000000" d="M485.88 396 476.88 400.5V391.5L485.88 396Z"/>
<path transform="matrix(.720072,0,0,.720072,0,0)" d="M187 380H326V394H187Z" fill="#ffffff"/>
<text xml:space="preserve" transform="matrix(.720072 0 0 .720072 0 0)" font-size="12" font-family="ArialMT"><tspan y="391" x="187.45313 194.12512 197.46112 200.79712 204.13312 210.13312 216.80512 223.47711 227.47312 234.14511 240.81711 247.4891 250.8251 256.8251 263.4971 269.4971 276.1691 282.1691 288.8411 295.5131 302.1851 305.5211 308.1851 314.8571 318.8531">5. Izabrana sa&#x010d;uvana igra</tspan></text>
<path transform="matrix(.720072,0,0,.720072,.360036,.360036)" stroke-width="1" stroke-linecap="butt" stroke-miterlimit="10" stroke-linejoin="miter" fill="none" stroke="#000000" d="M221 148H476.88"/>
<path transform="matrix(.720072,0,0,.720072,.360036,.360036)" d="M485.88 148 476.88 152.5V143.5L485.88 148Z"/>
<path transform="matrix(.720072,0,0,.720072,.360036,.360036)" stroke-width="1" stroke-linecap="butt" stroke-miterlimit="10" stroke-linejoin="miter" fill="none" stroke="#000000" d="M485.88 148 476.88 152.5V143.5L485.88 148Z"/>
<path transform="matrix(.720072,0,0,.720072,0,0)" d="M280 132H429V146H280Z" fill="#ffffff"/>
<text xml:space="preserve" transform="matrix(.720072 0 0 .720072 0 0)" font-size="12" font-family="ArialMT"><tspan y="143" x="279.6875 286.3595 289.6955 293.0315 300.5879 304.5839 311.2559 314.5919 317.2559 320.5919 323.2559 325.9199 331.9199 335.2559 341.9279 345.2639 351.2639 357.93589 363.93589 370.60789 376.60789 383.27989 389.95188 392.61589 399.28788 402.62388 405.28788 411.95988 418.63188 422.62788">2. Vrati listu sa&#x010d;uvanih igara</tspan></text>
<path transform="matrix(.720072,0,0,.720072,.360036,.360036)" d="M487 517.5H484V516.5H487M481 517.5H478V516.5H481M475 517.5H472V516.5H475M469 517.5H466V516.5H469M463 517.5H460V516.5H463M457 517.5H454V516.5H457M451 517.5H448V516.5H451M445 517.5H442V516.5H445M439 517.5H436V516.5H439M433 517.5H430V516.5H433M427 517.5H424V516.5H427M421 517.5H418V516.5H421M415 517.5H412V516.5H415M409 517.5H406V516.5H409M403 517.5H400V516.5H403M397 517.5H394V516.5H397M391 517.5H388V516.5H391M385 517.5H382V516.5H385M379 517.5H376V516.5H379M373 517.5H370V516.5H373M367 517.5H364V516.5H367M361 517.5H358V516.5H361M355 517.5H352V516.5H355M349 517.5H346V516.5H349M343 517.5H340V516.5H343M337 517.5H334V516.5H337M331 517.5H328V516.5H331M325 517.5H322V516.5H325M319 517.5H316V516.5H319M313 517.5H310V516.5H313M307 517.5H304V516.5H307M301 517.5H298V516.5H301M295 517.5H292V516.5H295M289 517.5H286V516.5H289M283 517.5H280V516.5H283M277 517.5H274V516.5H277M271 517.5H268V516.5H271M265 517.5H262V516.5H265M259 517.5H256V516.5H259M253 517.5H250V516.5H253M247 517.5H244V516.5H247M241 517.5H238V516.5H241M235 517.5H232V516.5H235M229 517.5H226V516.5H229M223 517.5H220V516.5H223M217 517.5H214V516.5H217M211 517.5H208V516.5H211M205 517.5H202V516.5H205M199 517.5H196V516.5H199M193 517.5H190V516.5H193M187 517.5H184V516.5H187M181 517.5H178V516.5H181M175 517.5H172V516.5H175M169 517.5H166V516.5H169M163 517.5H160V516.5H163M157 517.5H154V516.5H157M151 517.5H148V516.5H151M145 517.5H142V516.5H145M139 517.5H136V516.5H139M133 517.5H130V516.5H133M127 517.5H124V516.5H127M121 517.5H118V516.5H121M115 517.5H112V516.5H115M109 517.5H106V516.5H109M103 517.5H100V516.5H103M97 517.5H94V516.5H97M91 517.5H88V516.5H91M85 517.5H82V516.5H85M79 517.5H76V516.5H79M73 517.5H70V516.5H73M67 517.5H64V516.5H67M61 517.5H58V516.5H61M55 517.5H52V516.5H55M49 517.5H46V516.5H49M43 517.5H40V516.5H43M37 517.5H34V516.5H37M31 517.5H28V516.5H31"/>
<path transform="matrix(.720072,0,0,.720072,.360036,.360036)" stroke-width="1" stroke-linecap="butt" stroke-miterlimit="10" stroke-linejoin="miter" fill="none" stroke="#000000" d="M33.12 512.5 24.12 517 33.12 521.5"/>
<path transform="matrix(.720072,0,0,.720072,0,0)" d="M190 498H285V512H190Z" fill="#ffffff"/>
<text xml:space="preserve" transform="matrix(.720072 0 0 .720072 0 0)" font-size="12" font-family="ArialMT"><tspan y="509" x="190.14063 196.81262 203.48462 206.82062 210.15662 218.16062 222.15662 228.82862 234.82862 241.50061 245.49662 248.83261 254.83261 261.5046 264.8406 267.5046 274.1766 278.1726">10. Prozor za igru</tspan></text>
<path transform="matrix(.720072,0,0,.720072,.360036,.360036)" d="M754 361H854V401H754Z" fill="#ffffff"/>
<path transform="matrix(.720072,0,0,.720072,.360036,.360036)" stroke-width="1" stroke-linecap="butt" stroke-miterlimit="4" stroke-linejoin="miter" fill="none" stroke="#000000" d="M754 361H854V401H754Z"/>
<path transform="matrix(.720072,0,0,.720072,.360036,.360036)" d="M804.5 401V404H803.5V401M804.5 407V410H803.5V407M804.5 413V416H803.5V413M804.5 419V422H803.5V419M804.5 425V428H803.5V425M804.5 431V434H803.5V431M804.5 437V440H803.5V437M804.5 443V446H803.5V443M804.5 449V452H803.5V449M804.5 455V458H803.5V455M804.5 461V464H803.5V461M804.5 467V470H803.5V467M804.5 473V476H803.5V473M804.5 479V482H803.5V479M804.5 485V488H803.5V485M804.5 491V494H803.5V491M804.5 497V500H803.5V497M804.5 503V506H803.5V503M804.5 509V512H803.5V509M804.5 515V518H803.5V515M804.5 521V524H803.5V521M804.5 527V530H803.5V527M804.5 533V536H803.5V533M804.5 539V542H803.5V539M804.5 545V548H803.5V545M804.5 551V554H803.5V551M804.5 557V560H803.5V557"/>
<text xml:space="preserve" transform="matrix(.720072 0 0 .720072 0 0)" font-size="16" font-family="ArialMT"><tspan y="387" x="790.2031 794.6511 803.5471 808.8751">Igra</tspan></text>
<path transform="matrix(.720072,0,0,.720072,.360036,.360036)" d="M799 415H809V505H799Z" fill="#ffffff"/>
<path transform="matrix(.720072,0,0,.720072,.360036,.360036)" stroke-width="1" stroke-linecap="butt" stroke-miterlimit="4" stroke-linejoin="miter" fill="none" stroke="#000000" d="M799 415H809V505H799Z"/>
<path transform="matrix(.720072,0,0,.720072,.360036,.360036)" stroke-width="1" stroke-linecap="butt" stroke-miterlimit="10" stroke-linejoin="miter" fill="none" stroke="#000000" d="M497 420H788.88"/>
<path transform="matrix(.720072,0,0,.720072,.360036,.360036)" d="M797.88 420 788.88 424.5V415.5L797.88 420Z"/>
<path transform="matrix(.720072,0,0,.720072,.360036,.360036)" stroke-width="1" stroke-linecap="butt" stroke-miterlimit="10" stroke-linejoin="miter" fill="none" stroke="#000000" d="M797.88 420 788.88 424.5V415.5L797.88 420Z"/>
<path transform="matrix(.720072,0,0,.720072,0,0)" d="M600 404H697V418H600Z" fill="#ffffff"/>
<text xml:space="preserve" transform="matrix(.720072 0 0 .720072 0 0)" font-size="12" font-family="ArialMT"><tspan y="415" x="600.15628 606.82827 610.16427 613.50027 622.16427 628.16427 630.82827 634.16427 640.83627 643.50027 646.83627 652.83627 656.17227 662.84426 666.8402 673.5122 676.8482 679.5122 686.1842 690.1802">6. U&#x010d;itaj staru igru</tspan></text>
<path transform="matrix(.720072,0,0,.720072,.360036,.360036)" d="M799 500.5H796V499.5H799M793 500.5H790V499.5H793M787 500.5H784V499.5H787M781 500.5H778V499.5H781M775 500.5H772V499.5H775M769 500.5H766V499.5H769M763 500.5H760V499.5H763M757 500.5H754V499.5H757M751 500.5H748V499.5H751M745 500.5H742V499.5H745M739 500.5H736V499.5H739M733 500.5H730V499.5H733M727 500.5H724V499.5H727M721 500.5H718V499.5H721M715 500.5H712V499.5H715M709 500.5H706V499.5H709M703 500.5H700V499.5H703M697 500.5H694V499.5H697M691 500.5H688V499.5H691M685 500.5H682V499.5H685M679 500.5H676V499.5H679M673 500.5H670V499.5H673M667 500.5H664V499.5H667M661 500.5H658V499.5H661M655 500.5H652V499.5H655M649 500.5H646V499.5H649M643 500.5H640V499.5H643M637 500.5H634V499.5H637M631 500.5H628V499.5H631M625 500.5H622V499.5H625M619 500.5H616V499.5H619M613 500.5H610V499.5H613M607 500.5H604V499.5H607M601 500.5H598V499.5H601M595 500.5H592V499.5H595M589 500.5H586V499.5H589M583 500.5H580V499.5H583M577 500.5H574V499.5H577M571 500.5H568V499.5H571M565 500.5H562V499.5H565M559 500.5H556V499.5H559M553 500.5H550V499.5H553M547 500.5H544V499.5H547M541 500.5H538V499.5H541M535 500.5H532V499.5H535M529 500.5H526V499.5H529M523 500.5H520V499.5H523M517 500.5H514V499.5H517M511 500.5H508V499.5H511M505 500.5H502V499.5H505"/>
<path transform="matrix(.720072,0,0,.720072,.360036,.360036)" stroke-width="1" stroke-linecap="butt" stroke-miterlimit="10" stroke-linejoin="miter" fill="none" stroke="#000000" d="M507.12 495.5 498.12 500 507.12 504.5"/>
<path transform="matrix(.720072,0,0,.720072,0,0)" d="M596 484H701V498H596Z" fill="#ffffff"/>
<text xml:space="preserve" transform="matrix(.720072 0 0 .720072 0 0)" font-size="12" font-family="ArialMT"><tspan y="495" x="596.46878 603.14077 606.47677 615.14077 621.14077 623.80477 627.14077 633.81277 640.48477 647.15676 650.49276 656.49276 659.82876 666.50076 670.4967 677.1687 680.5047 683.1687 689.8407 693.8367">9.U&#x010d;itana stara igra</tspan></text>
<path transform="matrix(.720072,0,0,.720072,.360036,.360036)" d="M1009 361H1109V401H1009Z" fill="#ffffff"/>
<path transform="matrix(.720072,0,0,.720072,.360036,.360036)" stroke-width="1" stroke-linecap="butt" stroke-miterlimit="4" stroke-linejoin="miter" fill="none" stroke="#000000" d="M1009 361H1109V401H1009Z"/>
<path transform="matrix(.720072,0,0,.720072,.360036,.360036)" d="M1059.5 401V404H1058.5V401M1059.5 407V410H1058.5V407M1059.5 413V416H1058.5V413M1059.5 419V422H1058.5V419M1059.5 425V428H1058.5V425M1059.5 431V434H1058.5V431M1059.5 437V440H1058.5V437M1059.5 443V446H1058.5V443M1059.5 449V452H1058.5V449M1059.5 455V458H1058.5V455M1059.5 461V464H1058.5V461M1059.5 467V470H1058.5V467M1059.5 473V476H1058.5V473M1059.5 479V482H1058.5V479M1059.5 485V488H1058.5V485M1059.5 491V494H1058.5V491M1059.5 497V500H1058.5V497M1059.5 503V506H1058.5V503M1059.5 509V512H1058.5V509M1059.5 515V518H1058.5V515M1059.5 521V524H1058.5V521M1059.5 527V530H1058.5V527M1059.5 533V536H1058.5V533M1059.5 539V542H1058.5V539M1059.5 545V548H1058.5V545M1059.5 551V554H1058.5V551M1059.5 557V560H1058.5V557M1059.5 563V564H1058.5V563"/>
<text xml:space="preserve" transform="matrix(.720072 0 0 .720072 0 0)" font-size="16" font-family="ArialMT"><tspan y="387" x="1038.9844 1052.3124 1061.2084 1070.1044">Mapa</tspan></text>
<path transform="matrix(.720072,0,0,.720072,.360036,.360036)" d="M1054 439H1064V485H1054Z" fill="#ffffff"/>
<path transform="matrix(.720072,0,0,.720072,.360036,.360036)" stroke-width="1" stroke-linecap="butt" stroke-miterlimit="4" stroke-linejoin="miter" fill="none" stroke="#000000" d="M1054 439H1064V485H1054Z"/>
<path transform="matrix(.720072,0,0,.720072,.360036,.360036)" stroke-width="1" stroke-linecap="butt" stroke-miterlimit="10" stroke-linejoin="miter" fill="none" stroke="#000000" d="M809 444H1043.88"/>
<path transform="matrix(.720072,0,0,.720072,.360036,.360036)" d="M1052.88 444 1043.88 448.5V439.5L1052.88 444Z"/>
<path transform="matrix(.720072,0,0,.720072,.360036,.360036)" stroke-width="1" stroke-linecap="butt" stroke-miterlimit="10" stroke-linejoin="miter" fill="none" stroke="#000000" d="M1052.88 444 1043.88 448.5V439.5L1052.88 444Z"/>
<path transform="matrix(.720072,0,0,.720072,0,0)" d="M879 428H986V442H879Z" fill="#ffffff"/>
<text xml:space="preserve" transform="matrix(.720072 0 0 .720072 0 0)" font-size="12" font-family="ArialMT"><tspan y="439" x="879.1406 885.8126 889.1486 892.4846 901.1486 907.1486 909.8126 913.1486 919.8206 922.4846 925.8206 931.8206 935.1566 941.8286 945.8246 952.4966 955.8326 965.82858 972.50057 979.17257">7. U&#x010d;itaj staru mapu</tspan></text>
<path transform="matrix(.720072,0,0,.720072,.360036,.360036)" d="M1054 480.5H1051V479.5H1054M1048 480.5H1045V479.5H1048M1042 480.5H1039V479.5H1042M1036 480.5H1033V479.5H1036M1030 480.5H1027V479.5H1030M1024 480.5H1021V479.5H1024M1018 480.5H1015V479.5H1018M1012 480.5H1009V479.5H1012M1006 480.5H1003V479.5H1006M1000 480.5H997V479.5H1000M994 480.5H991V479.5H994M988 480.5H985V479.5H988M982 480.5H979V479.5H982M976 480.5H973V479.5H976M970 480.5H967V479.5H970M964 480.5H961V479.5H964M958 480.5H955V479.5H958M952 480.5H949V479.5H952M946 480.5H943V479.5H946M940 480.5H937V479.5H940M934 480.5H931V479.5H934M928 480.5H925V479.5H928M922 480.5H919V479.5H922M916 480.5H913V479.5H916M910 480.5H907V479.5H910M904 480.5H901V479.5H904M898 480.5H895V479.5H898M892 480.5H889V479.5H892M886 480.5H883V479.5H886M880 480.5H877V479.5H880M874 480.5H871V479.5H874M868 480.5H865V479.5H868M862 480.5H859V479.5H862M856 480.5H853V479.5H856M850 480.5H847V479.5H850M844 480.5H841V479.5H844M838 480.5H835V479.5H838M832 480.5H829V479.5H832M826 480.5H823V479.5H826M820 480.5H817V479.5H820M814 480.5H811.24V479.5H814"/>
<path transform="matrix(.720072,0,0,.720072,.360036,.360036)" stroke-width="1" stroke-linecap="butt" stroke-miterlimit="10" stroke-linejoin="miter" fill="none" stroke="#000000" d="M819.12 475.5 810.12 480 819.12 484.5"/>
<path transform="matrix(.720072,0,0,.720072,0,0)" d="M873 464H990V478H873Z" fill="#ffffff"/>
<text xml:space="preserve" transform="matrix(.720072 0 0 .720072 0 0)" font-size="12" font-family="ArialMT"><tspan y="475" x="872.7969 879.4689 882.8049 886.14089 894.8049 900.8049 903.4689 906.8049 913.47689 920.14889 926.82089 930.15689 936.15689 939.49288 946.16488 950.1608 956.8328 960.1688 970.1648 976.8368 983.5088">8. U&#x010d;itana stara mapa</tspan></text>
</g>
</svg>
